{
  "name": "GressusApp",
  "integrations": {},
  "type": "ionic1",
  "watchPatterns": [
    "scss/**/*",
    "www/**/*",
    "!www/lib/**/*",
    "!www/**/*.map"
  ],
  "gulpStartupTasks": ["sass", "watch"]
}
